{
    "missions": [
        {"contact": "Bain",     "dlc": "Community Map",     "mode": 3,  "days": 1,  "name": "Art Gallery"},
        {"contact": "Bain",     "dlc": "",                  "mode": 3,  "days": 1,  "name": "Bank Heist: Pro"},
        {"contact": "Bain",     "dlc": "",                  "mode": 3,  "days": 1,  "name": "Bank Heist: Cash"},
        {"contact": "Bain",     "dlc": "",                  "mode": 3,  "days": 1,  "name": "Bank Heist: Deposit"},
        {"contact": "Bain",     "dlc": "",                  "mode": 3,  "days": 1,  "name": "Bank Heist: Gold Pro"},
        {"contact": "Bain",     "dlc": "",                  "mode": 2,  "days": 1,  "name": "Car Shop"},
        {"contact": "Bain",     "dlc": "",                  "mode": 1,  "days": 1,  "name": "Cook Off"},
        {"contact": "Bain",     "dlc": "",                  "mode": 3,  "days": 1,  "name": "Diamond Store"},
        {"contact": "Bain",     "dlc": "",                  "mode": 3,  "days": 1,  "name": "GO Bank"},
        {"contact": "Bain",     "dlc": "",                  "mode": 3,  "days": 1,  "name": "Jewelry Store"},
        {"contact": "Bain",     "dlc": "",                  "mode": 2,  "days": 1,  "name": "Shadow Raid"},
        {"contact": "Bain",     "dlc": "Transport DLC",     "mode": 1,  "days": 1,  "name": "Transport: Crossroads"},
        {"contact": "Bain",     "dlc": "Transport DLC",     "mode": 1,  "days": 1,  "name": "Transport: Downtown"},
        {"contact": "Bain",     "dlc": "Transport DLC",     "mode": 1,  "days": 1,  "name": "Transport: Harbor"},
        {"contact": "Bain",     "dlc": "Transport DLC",     "mode": 1,  "days": 1,  "name": "Transport: Park"},
        {"contact": "Bain",     "dlc": "Transport DLC",     "mode": 3,  "days": 1,  "name": "Transport: Train Heist"},
        {"contact": "Bain",     "dlc": "Transport DLC",     "mode": 1,  "days": 1,  "name": "Transport: Underpass"},
        {"contact": "Hector",   "dlc": "",                  "mode": 3,  "days": 3,  "name": "Firestarter"},
        {"contact": "Hector",   "dlc": "",                  "mode": 3,  "days": 3,  "name": "Firestarter Pro"},
        {"contact": "Hector",   "dlc": "",                  "mode": 1,  "days": 3,  "name": "Rats"},
        {"contact": "Hector",   "dlc": "",                  "mode": 1,  "days": 3,  "name": "Rats Pro"},
        {"contact": "Hector",   "dlc": "",                  "mode": 1,  "days": 2,  "name": "Watchdogs"},
        {"contact": "Hector",   "dlc": "",                  "mode": 1,  "days": 2,  "name": "Watchdogs Pro"},
        {"contact": "Butcher",  "dlc": "Butcher DLC",       "mode": 3,  "days": 1,  "name": "The Bomb: Dockyard"},
        {"contact": "Butcher",  "dlc": "Butcher DLC",       "mode": 1,  "days": 1,  "name": "The Bomb: Forest"},
        {"contact": "Dentist",  "dlc": "Hotline DLC",       "mode": 1,  "days": 2,  "name": "Hotline Miami"},
        {"contact": "Dentist",  "dlc": "Hotline DLC",       "mode": 1,  "days": 2,  "name": "Hotline Miami Pro"},
        {"contact": "Dentist",  "dlc": "Community Map",     "mode": 1,  "days": 2,  "name": "Hoxton Breakout"},
        {"contact": "Dentist",  "dlc": "Community Map",     "mode": 1,  "days": 2,  "name": "Hoxton Breakout Pro"},
        {"contact": "Dentist",  "dlc": "",                  "mode": 1,  "days": 1,  "name": "Hoxton Revenge"},
        {"contact": "Dentist",  "dlc": "Big Bank DLC",      "mode": 3,  "days": 1,  "name": "Big Bank"},
        {"contact": "Dentist",  "dlc": "Diamond DLC",       "mode": 3,  "days": 1,  "name": "The Diamond"},
        {"contact": "Elephant", "dlc": "",                  "mode": 3,  "days": 2,  "name": "Big Oil Pro"},
        {"contact": "Elephant", "dlc": "",                  "mode": 3,  "days": 2,  "name": "Election Day"},
        {"contact": "Elephant", "dlc": "",                  "mode": 3,  "days": 2,  "name": "Election Day Pro"},
        {"contact": "Elephant", "dlc": "",                  "mode": 3,  "days": 3,  "name": "Framing Frame"},
        {"contact": "Elephant", "dlc": "",                  "mode": 3,  "days": 3,  "name": "Framing Frame Pro"},
        {"contact": "Vlad",     "dlc": "",                  "mode": 3,  "days": 1,  "name": "Four Stores"},
        {"contact": "Vlad",     "dlc": "",                  "mode": 1,  "days": 1,  "name": "Mallcrashers"},
        {"contact": "Vlad",     "dlc": "",                  "mode": 3,  "days": 1,  "name": "Nightclub"},
        {"contact": "Vlad",     "dlc": "",                  "mode": 3,  "days": 1,  "name": "Ukrainian Job Pro"},
        {"contact": "Vlad",     "dlc": "",                  "mode": 1,  "days": 1,  "name": "White XMas"}
    ]
}